[
    {
        "Author": "",
        "Name": "LiFu",
        "Punchline": "LiFu",
        "Description": "LiFu",
        "Changelog": "Updated for API4",
        "InternalName": "LiFu",
        "AssemblyVersion": "1.1.2.1",
        "RepoUrl": "",
        "ApplicableVersion": "any",
        "DalamudApiLevel": 8,
        "IconUrl": "",
        "ImageUrls": [
            ""
        ],
        "DownloadLinkInstall": "https://gitea.com/WindZ/Cosmos/raw/branch/master/selene/LiFu/latest.zip",
        "IsHide": false,
        "IsTestingExclusive": false,
        "DownloadLinkTesting": "https://gitea.com/WindZ/Cosmos/raw/branch/master/selene/LiFu/latest.zip",
        "DownloadLinkUpdate": "https://gitea.com/WindZ/Cosmos/raw/branch/master/selene/LiFu/latest.zip",
        "DownloadCount": 0,
        "LastUpdate": "1684375685"
    },
    {
        "Author": "Aki, k-kz, ele-starshade, damolitionn, Taurenkey, Augporto, grimgal, Genesis-Nova, Tartarga",
        "Name": "XIVSlothComboX",
        "Punchline": "Condenses combos and mutually exclusive abilities onto a single button - and then some.",
        "Description": "Condenses combos and mutually exclusive abilities onto a single button - and then some.",
        "Changelog": "Features, Fixes & Enhancements Framework, DoH, PLD, RDM, SGE, WAR, WHM, ASTPvP and GNBPvP. Please check the project's GitHub or Discord for a full changelog.",
        "InternalName": "XIVSlothComboX",
        "AssemblyVersion": "3.0.18.8",
        "RepoUrl": "https://github.com/Nik-Potokar/XIVSlothCombo",
        "ApplicableVersion": "any",
        "DalamudApiLevel": 8,
        "IconUrl": "https://i.imgur.com/iEcxM81.png",
        "ImageUrls": [
            "https://i.imgur.com/iEcxM81.png"
        ],
        "DownloadLinkInstall": "https://gitea.com/WindZ/Cosmos/raw/branch/master/selene/XIVSlothComboX/latest.zip",
        "IsHide": false,
        "IsTestingExclusive": false,
        "DownloadLinkTesting": "https://gitea.com/WindZ/Cosmos/raw/branch/master/selene/XIVSlothComboX/latest.zip",
        "DownloadLinkUpdate": "https://gitea.com/WindZ/Cosmos/raw/branch/master/selene/XIVSlothComboX/latest.zip",
        "DownloadCount": 0,
        "LastUpdate": "1689576284"
    }
]